Credit Card Anomaly Detection
…
predictions_tbl <- as_tibble(predictions) %>%
    mutate(class = factor(class, levels = c("1","0"))) %>%
    mutate(outlier = factor(outlier,levels = c("1","0")))
predictions_tbl

## # A tibble: 284,807 x 4
##    predict mean_length outlier class
##      <dbl>       <dbl> <fct>   <fct>
##  1  0.0472        6.82 0       0    
##  2  0.0499        6.81 0       0    
##  3  0.160         6.39 0       0    
##  4  0.110         6.58 0       0    
##  5  0.0656        6.75 0       0    
##  6  0.0499        6.81 0       0    
##  7  0.0551        6.79 0       0    
##  8  0.168         6.36 0       0    
##  9  0.0971        6.63 0       0    
## 10  0.0525        6.8  0       0    
## # ... with 284,797 more rows
…
  |                                                                            
  |=============================================================         |  87%
  |                                                                            
  |================================================================      |  92%
  |                                                                            
  |===================================================================== |  98%
  |                                                                            
  |======================================================================| 100%
## 
  |                                                                            
  |                                                                      |   0%
  |                                                                            
  |======================================================================| 100%

## # A tibble: 284,807 x 3
##    predict mean_length   row
##      <dbl>       <dbl> <int>
##  1 0.0431         6.83     1
##  2 0.0152         6.94     2
##  3 0.157          6.38     3
##  4 0.0533         6.79     4
##  5 0.0330         6.87     5
##  6 0.0203         6.92     6
##  7 0.00761        6.97     7
##  8 0.190          6.25     8
##  9 0.0457         6.82     9
## 10 0.0279         6.89    10
## # ... with 284,797 more rows
…
