Customer Community Network Detection.
…
Imputation and Standardized

rec_obj <- recipe(~ ., data = credit_card_tbl) %>%
    # Random Forest Imputation
    step_bagimpute(MINIMUM_PAYMENTS, CREDIT_LIMIT) %>%
    # Scale & Center for relationship analysis           
    step_center(all_numeric()) %>%
    step_scale(all_numeric()) %>%
    prep()

train_tbl <- bake(rec_obj, new_data = credit_card_tbl)
train_tbl

## # A tibble: 8,950 x 18
##    CUST_ID BALANCE BALANCE_FREQUEN~ PURCHASES ONEOFF_PURCHASES INSTALLMENTS_PU~
##    <fct>     <dbl>            <dbl>     <dbl>            <dbl>            <dbl>
##  1 C10001  -0.732            -0.249   -0.425           -0.357           -0.349 
##  2 C10002   0.787             0.134   -0.470           -0.357           -0.455 
##  3 C10003   0.447             0.518   -0.108            0.109           -0.455 
##  4 C10004   0.0491           -1.02     0.232            0.546           -0.455 
##  5 C10005  -0.359             0.518   -0.462           -0.347           -0.455 
##  6 C10006   0.118             0.518    0.154           -0.357            1.02  
##  7 C10007  -0.450             0.518    2.85             3.50             0.307 
##  8 C10008   0.125             0.518   -0.265           -0.357            0.0278
##  9 C10009  -0.264             0.518   -0.0663           0.0416          -0.233 
## 10 C10010  -0.678            -1.40     0.130            0.415           -0.455 
## # ... with 8,940 more rows, and 12 more variables: CASH_ADVANCE <dbl>,
## #   PURCHASES_FREQUENCY <dbl>, ONEOFF_PURCHASES_FREQUENCY <dbl>,
## #   PURCHASES_INSTALLMENTS_FREQUENCY <dbl>, CASH_ADVANCE_FREQUENCY <dbl>,
## #   CASH_ADVANCE_TRX <dbl>, PURCHASES_TRX <dbl>, CREDIT_LIMIT <dbl>,
## #   PAYMENTS <dbl>, MINIMUM_PAYMENTS <dbl>, PRC_FULL_PAYMENT <dbl>,
## #   TENURE <dbl>
…
    # Adjacency Matrix - Perform Similarity using Correlation
    as.matrix() %>%
    cor()

Customer Correlation Matrix

This is adjacency matrix that show how every customers are correlated against the other customers. Relationshiop Between Each Customers

customer_correlation_matrix %>% as_tibble(rownames = "CUST_ID")

## # A tibble: 8,950 x 8,951
##    CUST_ID  C10001  C10002  C10003  C10004  C10005 C10006  C10007  C10008 C10009
##    <chr>     <dbl>   <dbl>   <dbl>   <dbl>   <dbl>  <dbl>   <dbl>   <dbl>  <dbl>
##  1 C10001   1       0.0842 -0.171   0.125   0.807   0.386 -0.193   0.0384 0.279 
##  2 C10002   0.0842  1      -0.276   0.249   0.207  -0.360 -0.444  -0.469  0.0102
##  3 C10003  -0.171  -0.276   1       0.0913  0.0823 -0.156  0.292  -0.0332 0.266 
##  4 C10004   0.125   0.249   0.0913  1       0.0420 -0.345  0.222  -0.496  0.464 
##  5 C10005   0.807   0.207   0.0823  0.0420  1       0.269 -0.221  -0.0653 0.434 
##  6 C10006   0.386  -0.360  -0.156  -0.345   0.269   1     -0.271   0.696  0.185 
##  7 C10007  -0.193  -0.444   0.292   0.222  -0.221  -0.271  1      -0.0878 0.214 
##  8 C10008   0.0384 -0.469  -0.0332 -0.496  -0.0653  0.696 -0.0878  1      0.125 
##  9 C10009   0.279   0.0102  0.266   0.464   0.434   0.185  0.214   0.125  1     
## 10 C10010  -0.0500  0.135   0.226   0.860  -0.168  -0.390  0.433  -0.440  0.508 
## # ... with 8,940 more rows, and 8,941 more variables: C10010 <dbl>,
## #   C10011 <dbl>, C10012 <dbl>, C10013 <dbl>, C10014 <dbl>, C10015 <dbl>,
## #   C10016 <dbl>, C10017 <dbl>, C10018 <dbl>, C10019 <dbl>, C10020 <dbl>,
## #   C10021 <dbl>, C10022 <dbl>, C10023 <dbl>, C10024 <dbl>, C10025 <dbl>,
## #   C10026 <dbl>, C10027 <dbl>, C10028 <dbl>, C10029 <dbl>, C10030 <dbl>,
## #   C10031 <dbl>, C10032 <dbl>, C10033 <dbl>, C10034 <dbl>, C10035 <dbl>,
## #   C10036 <dbl>, C10037 <dbl>, C10038 <dbl>, C10039 <dbl>, C10040 <dbl>,
## #   C10041 <dbl>, C10043 <dbl>, C10044 <dbl>, C10045 <dbl>, C10046 <dbl>,
## #   C10047 <dbl>, C10048 <dbl>, C10049 <dbl>, C10050 <dbl>, C10051 <dbl>,
…
Remove customer relationships or related to themselves

diag(customer_correlation_matrix) <- 0
customer_correlation_matrix %>% as_tibble(rownames = "CUST_ID")

## # A tibble: 8,950 x 8,951
##    CUST_ID  C10001  C10002  C10003  C10004  C10005 C10006  C10007  C10008 C10009
##    <chr>     <dbl>   <dbl>   <dbl>   <dbl>   <dbl>  <dbl>   <dbl>   <dbl>  <dbl>
##  1 C10001   0       0.0842 -0.171   0.125   0.807   0.386 -0.193   0.0384 0.279 
##  2 C10002   0.0842  0      -0.276   0.249   0.207  -0.360 -0.444  -0.469  0.0102
##  3 C10003  -0.171  -0.276   0       0.0913  0.0823 -0.156  0.292  -0.0332 0.266 
##  4 C10004   0.125   0.249   0.0913  0       0.0420 -0.345  0.222  -0.496  0.464 
##  5 C10005   0.807   0.207   0.0823  0.0420  0       0.269 -0.221  -0.0653 0.434 
##  6 C10006   0.386  -0.360  -0.156  -0.345   0.269   0     -0.271   0.696  0.185 
##  7 C10007  -0.193  -0.444   0.292   0.222  -0.221  -0.271  0      -0.0878 0.214 
##  8 C10008   0.0384 -0.469  -0.0332 -0.496  -0.0653  0.696 -0.0878  0      0.125 
##  9 C10009   0.279   0.0102  0.266   0.464   0.434   0.185  0.214   0.125  0     
## 10 C10010  -0.0500  0.135   0.226   0.860  -0.168  -0.390  0.433  -0.440  0.508 
## # ... with 8,940 more rows, and 8,941 more variables: C10010 <dbl>,
## #   C10011 <dbl>, C10012 <dbl>, C10013 <dbl>, C10014 <dbl>, C10015 <dbl>,
## #   C10016 <dbl>, C10017 <dbl>, C10018 <dbl>, C10019 <dbl>, C10020 <dbl>,
## #   C10021 <dbl>, C10022 <dbl>, C10023 <dbl>, C10024 <dbl>, C10025 <dbl>,
## #   C10026 <dbl>, C10027 <dbl>, C10028 <dbl>, C10029 <dbl>, C10030 <dbl>,
## #   C10031 <dbl>, C10032 <dbl>, C10033 <dbl>, C10034 <dbl>, C10035 <dbl>,
## #   C10036 <dbl>, C10037 <dbl>, C10038 <dbl>, C10039 <dbl>, C10040 <dbl>,
## #   C10041 <dbl>, C10043 <dbl>, C10044 <dbl>, C10045 <dbl>, C10046 <dbl>,
## #   C10047 <dbl>, C10048 <dbl>, C10049 <dbl>, C10050 <dbl>, C10051 <dbl>,
…
Remove duplicate relationships

customer_correlation_matrix[upper.tri(customer_correlation_matrix)] <- 0
customer_correlation_matrix %>% as_tibble(rownames = "CUST_ID")

## # A tibble: 8,950 x 8,951
##    CUST_ID  C10001  C10002  C10003  C10004  C10005 C10006  C10007 C10008 C10009
##    <chr>     <dbl>   <dbl>   <dbl>   <dbl>   <dbl>  <dbl>   <dbl>  <dbl>  <dbl>
##  1 C10001   0       0       0       0       0       0      0       0      0    
##  2 C10002   0.0842  0       0       0       0       0      0       0      0    
##  3 C10003  -0.171  -0.276   0       0       0       0      0       0      0    
##  4 C10004   0.125   0.249   0.0913  0       0       0      0       0      0    
##  5 C10005   0.807   0.207   0.0823  0.0420  0       0      0       0      0    
##  6 C10006   0.386  -0.360  -0.156  -0.345   0.269   0      0       0      0    
##  7 C10007  -0.193  -0.444   0.292   0.222  -0.221  -0.271  0       0      0    
##  8 C10008   0.0384 -0.469  -0.0332 -0.496  -0.0653  0.696 -0.0878  0      0    
##  9 C10009   0.279   0.0102  0.266   0.464   0.434   0.185  0.214   0.125  0    
## 10 C10010  -0.0500  0.135   0.226   0.860  -0.168  -0.390  0.433  -0.440  0.508
## # ... with 8,940 more rows, and 8,941 more variables: C10010 <dbl>,
## #   C10011 <dbl>, C10012 <dbl>, C10013 <dbl>, C10014 <dbl>, C10015 <dbl>,
## #   C10016 <dbl>, C10017 <dbl>, C10018 <dbl>, C10019 <dbl>, C10020 <dbl>,
## #   C10021 <dbl>, C10022 <dbl>, C10023 <dbl>, C10024 <dbl>, C10025 <dbl>,
## #   C10026 <dbl>, C10027 <dbl>, C10028 <dbl>, C10029 <dbl>, C10030 <dbl>,
## #   C10031 <dbl>, C10032 <dbl>, C10033 <dbl>, C10034 <dbl>, C10035 <dbl>,
## #   C10036 <dbl>, C10037 <dbl>, C10038 <dbl>, C10039 <dbl>, C10040 <dbl>,
## #   C10041 <dbl>, C10043 <dbl>, C10044 <dbl>, C10045 <dbl>, C10046 <dbl>,
## #   C10047 <dbl>, C10048 <dbl>, C10049 <dbl>, C10050 <dbl>, C10051 <dbl>,
…
Prune relationships

Subsets of most influential customers.

edge_limit <- 0.99   # Below 0.99 gets zero values
customer_correlation_matrix[customer_correlation_matrix < edge_limit] <- 0
customer_correlation_matrix %>% as_tibble(rownames = "CUST_ID")

## # A tibble: 8,950 x 8,951
##    CUST_ID C10001 C10002 C10003 C10004 C10005 C10006 C10007 C10008 C10009 C10010
##    <chr>    <dbl>  <dbl>  <dbl>  <dbl>  <dbl>  <dbl>  <dbl>  <dbl>  <dbl>  <dbl>
##  1 C10001       0      0      0      0      0      0      0      0      0      0
##  2 C10002       0      0      0      0      0      0      0      0      0      0
##  3 C10003       0      0      0      0      0      0      0      0      0      0
##  4 C10004       0      0      0      0      0      0      0      0      0      0
##  5 C10005       0      0      0      0      0      0      0      0      0      0
##  6 C10006       0      0      0      0      0      0      0      0      0      0
##  7 C10007       0      0      0      0      0      0      0      0      0      0
##  8 C10008       0      0      0      0      0      0      0      0      0      0
##  9 C10009       0      0      0      0      0      0      0      0      0      0
## 10 C10010       0      0      0      0      0      0      0      0      0      0
## # ... with 8,940 more rows, and 8,940 more variables: C10011 <dbl>,
## #   C10012 <dbl>, C10013 <dbl>, C10014 <dbl>, C10015 <dbl>, C10016 <dbl>,
## #   C10017 <dbl>, C10018 <dbl>, C10019 <dbl>, C10020 <dbl>, C10021 <dbl>,
## #   C10022 <dbl>, C10023 <dbl>, C10024 <dbl>, C10025 <dbl>, C10026 <dbl>,
## #   C10027 <dbl>, C10028 <dbl>, C10029 <dbl>, C10030 <dbl>, C10031 <dbl>,
## #   C10032 <dbl>, C10033 <dbl>, C10034 <dbl>, C10035 <dbl>, C10036 <dbl>,
## #   C10037 <dbl>, C10038 <dbl>, C10039 <dbl>, C10040 <dbl>, C10041 <dbl>,
## #   C10043 <dbl>, C10044 <dbl>, C10045 <dbl>, C10046 <dbl>, C10047 <dbl>,
## #   C10048 <dbl>, C10049 <dbl>, C10050 <dbl>, C10051 <dbl>, C10052 <dbl>,
…
sum(customer_correlation_matrix > 0)

## [1] 10703

Filter relationships to subset of customers that have relationships

customer_correlation_matrix <- customer_correlation_matrix[rowSums(customer_correlation_matrix) > 0, colSums(customer_correlation_matrix) > 0] 
customer_correlation_matrix %>% dim()

## [1] 1992 1991

customer_correlation_matrix %>% as_tibble(rownames = "CUST_ID")

## # A tibble: 1,992 x 1,992
##    CUST_ID C10003 C10005 C10008 C10011 C10015 C10017 C10021 C10026 C10027 C10028
##    <chr>    <dbl>  <dbl>  <dbl>  <dbl>  <dbl>  <dbl>  <dbl>  <dbl>  <dbl>  <dbl>
##  1 C10102   0          0      0  0          0      0      0      0      0  0    
##  2 C10166   0          0      0  0          0      0      0      0      0  0    
##  3 C10174   0          0      0  0.997      0      0      0      0      0  0    
##  4 C10213   0          0      0  0          0      0      0      0      0  0    
##  5 C10256   0          0      0  0          0      0      0      0      0  0.996
##  6 C10278   0.996      0      0  0          0      0      0      0      0  0    
##  7 C10300   0          0      0  0          0      0      0      0      0  0    
##  8 C10321   0          0      0  0          0      0      0      0      0  0    
##  9 C10371   0          0      0  0          0      0      0      0      0  0    
## 10 C10391   0          0      0  0          0      0      0      0      0  0    
## # ... with 1,982 more rows, and 1,981 more variables: C10034 <dbl>,
## #   C10036 <dbl>, C10044 <dbl>, C10045 <dbl>, C10049 <dbl>, C10050 <dbl>,
## #   C10054 <dbl>, C10063 <dbl>, C10065 <dbl>, C10069 <dbl>, C10070 <dbl>,
## #   C10082 <dbl>, C10087 <dbl>, C10089 <dbl>, C10093 <dbl>, C10094 <dbl>,
## #   C10097 <dbl>, C10100 <dbl>, C10103 <dbl>, C10104 <dbl>, C10109 <dbl>,
## #   C10111 <dbl>, C10112 <dbl>, C10118 <dbl>, C10123 <dbl>, C10124 <dbl>,
## #   C10128 <dbl>, C10134 <dbl>, C10138 <dbl>, C10140 <dbl>, C10158 <dbl>,
## #   C10165 <dbl>, C10166 <dbl>, C10167 <dbl>, C10170 <dbl>, C10171 <dbl>,
## #   C10174 <dbl>, C10181 <dbl>, C10187 <dbl>, C10189 <dbl>, C10197 <dbl>,
…
Convert to Long Tibble with From & To Column Relating Customers

customer_relationship_tbl <- customer_correlation_matrix %>%
    as_tibble(rownames = "from") %>%
    gather(key = "to", value = "weight", -from) %>%
    filter(weight > 0)

customer_relationship_tbl

## # A tibble: 10,703 x 3
##    from   to     weight
##    <chr>  <chr>   <dbl>
##  1 C10278 C10003  0.996
##  2 C10962 C10005  0.991
##  3 C11104 C10005  0.992
##  4 C12740 C10005  0.991
##  5 C13779 C10005  0.990
##  6 C14513 C10005  0.995
##  7 C14737 C10005  0.994
##  8 C15919 C10005  0.993
##  9 C16180 C10005  0.997
## 10 C16961 C10005  0.994
## # ... with 10,693 more rows
…
    correlation_matrix[correlation_matrix < edge_limit] <- 0
    
    correlation_matrix <- correlation_matrix[rowSums(correlation_matrix) > 0, colSums(correlation_matrix) > 0] 
    
    correlation_matrix %>%
        as_tibble(rownames = "from") %>%
        gather(key = "to", value = "weight", -from) %>%
        filter(weight > 0)

}

prep_corr_matrix_for_tbl_graph(customer_correlation_matrix, edge_limit = 0.99)

## # A tibble: 7,178 x 3
##    from   to     weight
##    <chr>  <chr>   <dbl>
##  1 C10278 C10003  0.996
##  2 C10962 C10005  0.991
##  3 C11104 C10005  0.992
##  4 C12740 C10005  0.991
##  5 C13779 C10005  0.990
##  6 C14513 C10005  0.995
##  7 C14737 C10005  0.994
##  8 C15919 C10005  0.993
##  9 C16180 C10005  0.997
## 10 C16961 C10005  0.994
## # ... with 7,168 more rows
…
credit_card_group_tbl

## # A tibble: 890 x 21
##    group_lump CUST_ID BALANCE BALANCE_FREQUEN~ PURCHASES ONEOFF_PURCHASES
##    <fct>      <chr>     <dbl>            <dbl>     <dbl>            <dbl>
##  1 Other      C10005     818.            1          16               16  
##  2 Other      C10011    1293.            1         920.               0  
##  3 Other      C10015    2773.            1           0                0  
##  4 2          C10026     170.            1         400.               0  
##  5 2          C10028     126.            1         233.               0  
##  6 1          C10036    1656.            1           0                0  
##  7 Other      C10045    1361.            1           0                0  
##  8 Other      C10063    1556.            1          66.2             66.2
##  9 Other      C10069     810.            0.875       0                0  
## 10 Other      C10082    1206.            1           0                0  
## # ... with 880 more rows, and 15 more variables: INSTALLMENTS_PURCHASES <dbl>,
## #   CASH_ADVANCE <dbl>, PURCHASES_FREQUENCY <dbl>,
## #   ONEOFF_PURCHASES_FREQUENCY <dbl>, PURCHASES_INSTALLMENTS_FREQUENCY <dbl>,
## #   CASH_ADVANCE_FREQUENCY <dbl>, CASH_ADVANCE_TRX <dbl>, PURCHASES_TRX <dbl>,
## #   CREDIT_LIMIT <dbl>, PAYMENTS <dbl>, MINIMUM_PAYMENTS <dbl>,
## #   PRC_FULL_PAYMENT <dbl>, TENURE <dbl>, neighbors <dbl>, group <int>
h2o.predict(h2o_model, newdata = as.h2o(credit_card_group_tbl)) %>%
  as_tibble()

## 
  |                                                                            
  |                                                                      |   0%
  |                                                                            
  |======================================================================| 100%
## 
  |                                                                            
  |                                                                      |   0%
  |                                                                            
  |======================================================================| 100%

## # A tibble: 890 x 7
##    predict     p1        p2        p3    p4       p5   Other
##    <fct>    <dbl>     <dbl>     <dbl> <dbl>    <dbl>   <dbl>
##  1 Other   0      0.000101  0.0000782     0 0.000428 0.999  
##  2 Other   0      0         0.0000782     0 0        1.00   
##  3 Other   0.0226 0.0000985 0.0000764     0 0.000419 0.977  
##  4 2       0      0.944     0.0000782     0 0        0.0556 
##  5 2       0      1.00      0.0000782     0 0.000262 0      
##  6 1       0.998  0.000102  0.0000788     0 0.000432 0.00124
##  7 Other   0.0999 0.0000907 0.0000704     0 0.000385 0.900  
##  8 Other   0      0.000101  0             0 0.000428 0.999  
##  9 Other   0.0526 0.0000955 0.0000741     0 0.000406 0.947  
## 10 Other   0.136  0.0000871 0.0000676     0 0.000370 0.864  
## # ... with 880 more rows
…
