Employee Churn Analysis
…
train_tbl <- bake(recipe_obj, new_data = train_readable_tbl)
test_tbl <- bake(recipe_obj, new_data = test_readable_tbl)

Correlation

## # A tibble: 65 x 2
##    feature                          Attrition_Yes
##    <fct>                                    <dbl>
##  1 PerformanceRating_Good                 NA     
##  2 OverTime_Yes                            0.240 
##  3 JobRole_Sales.Representative            0.153 
##  4 BusinessTravel_Travel_Frequently        0.103 
##  5 Department_Sales                        0.0891
##  6 DistanceFromHome                        0.0822
##  7 JobRole_Laboratory.Technician           0.0737
##  8 EducationField_Technical.Degree         0.0731
##  9 JobRole_Human.Resources                 0.0718
## 10 JobInvolvement_Medium                   0.0604
## # ... with 55 more rows
…
Prediction

Now we are ready to predict on our test set, which is unseen from during our modeling process. This is the true test of performance. We use the h2o.predict() function to make predictions.

prediction <- h2o.predict(
    stacked_ensemble_model, # stacked_ensemble_model
    newdata = as.h2o(test_tbl)
)

# Saving it as a tibble
prediction_tbl <- prediction %>% as_tibble()
prediction_tbl

## # A tibble: 220 x 3
##    predict    No    Yes
##    <fct>   <dbl>  <dbl>
##  1 No      0.958 0.0421
##  2 No      0.936 0.0641
##  3 No      0.961 0.0387
##  4 No      0.954 0.0461
##  5 Yes     0.246 0.754 
##  6 No      0.909 0.0908
##  7 No      0.948 0.0520
##  8 No      0.961 0.0393
##  9 No      0.961 0.0388
## 10 No      0.960 0.0396
## # ... with 210 more rows
…
performance_Deep_Learning <- h2o.performance(deep_learning_model, newdata = test_h2o)
performance_glm_model <-  h2o.performance(glm_model, newdata = test_h2o)
performance_Stacked_Ensemble <- h2o.performance(stacked_ensemble_model, newdata = test_h2o)

Now we can evaluate our leader model. We’ll reformat the test set an add the predictions as column so we have the actual and prediction columns side-by-side.

# Prep for performance assessment
test_performance <- test_h2o %>%
    tibble::as_tibble() %>%
    select(Attrition) %>%
    add_column(pred = as.vector(prediction$predict)) %>%
    mutate_if(is.character, as.factor)
test_performance

## # A tibble: 220 x 2
##    Attrition pred 
##    <fct>     <fct>
##  1 No        No   
##  2 No        No   
##  3 No        No   
##  4 No        No   
##  5 Yes       Yes  
##  6 No        No   
##  7 No        No   
##  8 No        No   
##  9 No        No   
## 10 No        No   
## # ... with 210 more rows
…
## 
  |                                                                            
  |                                                                      |   0%
  |                                                                            
  |======================================================================| 100%
## 
  |                                                                            
  |                                                                      |   0%
  |                                                                            
  |======================================================================| 100%

## # A tibble: 220 x 2
##       No     Yes
##    <dbl>   <dbl>
##  1 0.982 0.0178 
##  2 0.921 0.0789 
##  3 0.997 0.00258
##  4 0.970 0.0304 
##  5 0.380 0.620  
##  6 0.848 0.152  
##  7 0.967 0.0330 
##  8 0.991 0.00866
##  9 0.997 0.00269
## 10 0.997 0.00294
## # ... with 210 more rows
…
