Instacart Market Basket Analysis
…
Data

The Instacart dataset is open sourced as discussed in this article by Instacart. In addition, a Kaggle Competition was run in 2016-2017, which further promoted use of the Instacart dataset among the Data Science Community.

The Instacart Dataset contains a number of interesting features that can be further analyzed including departments, aisles, reordering habits, and so on. In this analysis will focus on Market Basket, which is the contents of individual orders (i.e. order_id and product_name).

Here are the element names for the data (tibbles) stored in instacart_raw_list.

Orders

orders <- vroom("data/orders.csv", delim = ",")
orders

## # A tibble: 3,421,083 x 7
##    order_id user_id eval_set order_number order_dow order_hour_of_d~
##       <dbl>   <dbl> <chr>           <dbl>     <dbl> <chr>           
##  1  2539329       1 prior               1         2 08              
##  2  2398795       1 prior               2         3 07              
##  3   473747       1 prior               3         3 12              
##  4  2254736       1 prior               4         4 07              
##  5   431534       1 prior               5         4 15              
##  6  3367565       1 prior               6         2 07              
##  7   550135       1 prior               7         1 09              
##  8  3108588       1 prior               8         1 14              
##  9  2295261       1 prior               9         1 16              
## 10  2550362       1 prior              10         4 08              
## # ... with 3,421,073 more rows, and 1 more variable:
## #   days_since_prior_order <dbl>

Orders product

order_products_train <- vroom("data/order_products__train.csv", delim = ",")
order_products_train

## # A tibble: 1,384,617 x 4
##    order_id product_id add_to_cart_order reordered
##       <dbl>      <dbl>             <dbl>     <dbl>
##  1        1      49302                 1         1
##  2        1      11109                 2         1
##  3        1      10246                 3         0
##  4        1      49683                 4         0
##  5        1      43633                 5         1
##  6        1      13176                 6         0
##  7        1      47209                 7         0
##  8        1      22035                 8         1
##  9       36      39612                 1         0
## 10       36      19660                 2         1
## # ... with 1,384,607 more rows

Products

products <- vroom("data/products.csv", delim = ",")
products

## # A tibble: 49,688 x 4
##    product_id product_name                                aisle_id department_id
##         <dbl> <chr>                                          <dbl>         <dbl>
##  1          1 Chocolate Sandwich Cookies                        61            19
##  2          2 All-Seasons Salt                                 104            13
##  3          3 Robust Golden Unsweetened Oolong Tea              94             7
##  4          4 Smart Ones Classic Favorites Mini Rigatoni~       38             1
##  5          5 Green Chile Anytime Sauce                          5            13
##  6          6 Dry Nose Oil                                      11            11
##  7          7 Pure Coconut Water With Orange                    98             7
##  8          8 Cut Russet Potatoes Steam N' Mash                116             1
##  9          9 Light Strawberry Blueberry Yogurt                120            16
## 10         10 Sparkling Orange Juice & Prickly Pear Beve~      115             7
## # ... with 49,678 more rows

Aisles

aisles <- vroom("data/aisles.csv", delim = ",")
aisles

## # A tibble: 134 x 2
##    aisle_id aisle                     
##       <dbl> <chr>                     
##  1        1 prepared soups salads     
##  2        2 specialty cheeses         
##  3        3 energy granola bars       
##  4        4 instant foods             
##  5        5 marinades meat preparation
##  6        6 other                     
##  7        7 packaged meat             
##  8        8 bakery desserts           
##  9        9 pasta sauce               
## 10       10 kitchen supplies          
## # ... with 124 more rows

Departments

departments <- vroom("data/departments.csv", delim = ",")
departments

## # A tibble: 21 x 2
##    department_id department     
##            <dbl> <chr>          
##  1             1 frozen         
##  2             2 other          
##  3             3 bakery         
##  4             4 produce        
##  5             5 alcohol        
##  6             6 international  
##  7             7 beverages      
##  8             8 pets           
##  9             9 dry goods pasta
## 10            10 bulk           
## # ... with 11 more rows
…
item_frequency_tbl %>% select(product_name,n,pct,cumulative_pct, popular_product)

## # A tibble: 39,123 x 5
##    product_name               n     pct cumulative_pct popular_product
##    <chr>                  <int>   <dbl>          <dbl> <chr>          
##  1 Banana                 18726 0.0135          0.0135 Yes            
##  2 Bag of Organic Bananas 15480 0.0112          0.0247 Yes            
##  3 Organic Strawberries   10894 0.00787         0.0326 Yes            
##  4 Organic Baby Spinach    9784 0.00707         0.0396 Yes            
##  5 Large Lemon             8135 0.00588         0.0455 Yes            
##  6 Organic Avocado         7409 0.00535         0.0509 Yes            
##  7 Organic Hass Avocado    7293 0.00527         0.0561 Yes            
##  8 Strawberries            6494 0.00469         0.0608 Yes            
##  9 Limes                   6033 0.00436         0.0652 Yes            
## 10 Organic Raspberries     5546 0.00401         0.0692 Yes            
## # ... with 39,113 more rows
…
user_frequency_tbl <- orders_combined_tbl %>%
    distinct(user_id, order_id) %>%
    count(user_id) %>%
    arrange(desc(n)) %>%
    mutate(
        pct = n / sum(n),
        cumulative_pct = cumsum(pct),
        popular_customer = ifelse(cumulative_pct <= 0.5, "Yes", "No")
    ) %>%
    rowid_to_column(var = "rank") 

user_frequency_tbl

## # A tibble: 131,209 x 6
##     rank user_id     n        pct cumulative_pct popular_customer
##    <int>   <dbl> <int>      <dbl>          <dbl> <chr>           
##  1     1       1     1 0.00000762     0.00000762 Yes             
##  2     2       2     1 0.00000762     0.0000152  Yes             
##  3     3       5     1 0.00000762     0.0000229  Yes             
##  4     4       7     1 0.00000762     0.0000305  Yes             
##  5     5       8     1 0.00000762     0.0000381  Yes             
##  6     6       9     1 0.00000762     0.0000457  Yes             
##  7     7      10     1 0.00000762     0.0000533  Yes             
##  8     8      13     1 0.00000762     0.0000610  Yes             
##  9     9      14     1 0.00000762     0.0000686  Yes             
## 10    10      17     1 0.00000762     0.0000762  Yes             
## # ... with 131,199 more rows
…
Looks like the first customer has 80 products.

user_item_frequency_tbl <- orders_combined_tbl %>%
    count(user_id) %>%
    arrange(desc(n)) %>%
    mutate(
        pct = n / sum(n),
        cumulative_pct = cumsum(pct),
        popular_customer = ifelse(cumulative_pct <= 0.5, "Yes", "No")
    ) %>%
    rowid_to_column(var = "rank") 

user_item_frequency_tbl

## # A tibble: 131,209 x 6
##     rank user_id     n       pct cumulative_pct popular_customer
##    <int>   <dbl> <int>     <dbl>          <dbl> <chr>           
##  1     1  149753    80 0.0000578      0.0000578 Yes             
##  2     2  197541    80 0.0000578      0.000116  Yes             
##  3     3   63458    77 0.0000556      0.000171  Yes             
##  4     4   83993    76 0.0000549      0.000226  Yes             
##  5     5  189951    76 0.0000549      0.000281  Yes             
##  6     6  169647    75 0.0000542      0.000335  Yes             
##  7     7   31611    74 0.0000534      0.000389  Yes             
##  8     8  104741    74 0.0000534      0.000442  Yes             
##  9     9   59321    72 0.0000520      0.000494  Yes             
## 10    10  181991    72 0.0000520      0.000546  Yes             
## # ... with 131,199 more rows
…
Popular Products

# Get names of top products
top_products_vec <- item_frequency_tbl %>%
    filter(popular_product == "Yes") %>%
    pull(product_name)

# Use names to filter 
top_products_basket_tbl <- orders_combined_tbl %>%
    filter(product_name %in% top_products_vec) 

top_products_basket_tbl %>%  select(order_id, product_name)

## # A tibble: 692,147 x 2
##    order_id product_name                     
##       <dbl> <chr>                            
##  1        1 Organic Celery Hearts            
##  2        1 Cucumber Kirby                   
##  3        1 Bag of Organic Bananas           
##  4        1 Organic Hass Avocado             
##  5        1 Organic Whole String Cheese      
##  6       36 Spring Water                     
##  7       36 Organic Half & Half              
##  8       36 Super Greens Salad               
##  9       36 Organic Garnet Sweet Potato (Yam)
## 10       36 Asparagus                        
## # ... with 692,137 more rows
…
Users have the largest baskets

# Condense user-item / Transaction-Item Matrix for Evaluation
top_users_vec <- user_item_frequency_tbl %>%
    # Filter the rank less than 2500
    filter(rank < 2500) %>%  
    pull(user_id)

market_basket_condensed_tbl <- top_products_basket_tbl %>%
    filter(user_id %in% top_users_vec) 

market_basket_condensed_tbl 

## # A tibble: 44,476 x 15
##    eval_set user_id order_id add_to_cart_ord~ reordered order_number order_dow
##    <chr>      <dbl>    <dbl>            <dbl>     <dbl>        <dbl>     <dbl>
##  1 train      56463       98                1         1           41         3
##  2 train      56463       98                4         1           41         3
##  3 train      56463       98                8         1           41         3
##  4 train      56463       98               13         1           41         3
##  5 train      56463       98               15         1           41         3
##  6 train      56463       98               16         1           41         3
##  7 train      56463       98               20         1           41         3
##  8 train      56463       98               21         1           41         3
##  9 train      56463       98               22         1           41         3
## 10 train      56463       98               25         1           41         3
## # ... with 44,466 more rows, and 8 more variables: order_hour_of_day <chr>,
## #   days_since_prior_order <dbl>, product_id <dbl>, product_name <chr>,
## #   aisle_id <dbl>, aisle <chr>, department_id <dbl>, department <chr>
…
set.seed(100)
sample_order_ids <- sample(unique(top_products_basket_tbl$order_id), size = n_sample)

top_products_sample_tbl <- top_products_basket_tbl %>%  
    select(order_id, product_name) %>% 
    # Sample orders
    filter(order_id %in% sample_order_ids) %>%
    # Filter using min_items
    group_by(order_id) %>%
    filter(n() >= min_items) %>%
    ungroup()

top_products_sample_tbl 

## # A tibble: 108,681 x 2
##    order_id product_name                            
##       <dbl> <chr>                                   
##  1       96 Roasted Turkey                          
##  2       96 Organic Cucumber                        
##  3       96 Organic Grape Tomatoes                  
##  4       96 Organic Raspberries                     
##  5       96 Organic Whole Strawberries              
##  6       96 Organic Blueberries                     
##  7      349 Pure Irish Butter                       
##  8      349 Natural Chicken & Sage Breakfast Sausage
##  9      349 Uncured Hickory Smoked Sunday Bacon     
## 10      349 Large Alfresco Eggs                     
## # ... with 108,671 more rows
…
